…
```
ax.df %>%
  select(x,x1,x2,i1,i2) %>%
  unique()

# A tibble: 121 x 5
   x        x1    x2    i1    i2
   <chr> <int> <int> <dbl> <dbl>
 1 0_0       0     0     0     0
 2 0_0       0     0     0     1
 3 0_0       0     0     1     0
 4 0_0       0     0     1     1
 5 0_1       0     1     0     0
 6 0_1       0     1     0     1
# ... with 115 more rows
```
…
