Specifying Games • RelationalContracts
…
Relevant to compute state transitions are only the investment actions and the state variables. We thus select the relevant columns and reduce to unique rows. We get:

ax.df %>%
  select(x,x1,x2,i1,i2) %>%
  unique()

# A tibble: 121 x 5
   x        x1    x2    i1    i2
   <chr> <int> <int> <dbl> <dbl>
 1 0_0       0     0     0     0
 2 0_0       0     0     0     1
 3 0_0       0     0     1     0
 4 0_0       0     0     1     1
 5 0_1       0     1     0     0
 6 0_1       0     1     0     1
# ... with 115 more rows
…
g = rel_game("Cournot with Investment") %>%
  rel_param(a = 10,i.cost = 1.5,x.max=x.max) %>%
  rel_states(x=x.df,
    A.fun=A.fun,
    pi1 = (a-(q1+q2))*q1 - i.cost*i1,
    pi2 = (a-(q1+q2))*q2 - i.cost*i2,
    trans.fun=trans.fun
  )

g %>% rel_spe(delta=0.3) %>% get_eq() %>% select(x, ae.lab,U)

## # A tibble: 36 x 3
##    x     ae.lab        U
##    <chr> <chr>     <dbl>
##  1 0_0   0 1 | 0 1  2.84
##  2 0_1   0 1 | 1 1 10.5 
##  3 0_2   0 1 | 2 0 16.4 
##  4 0_3   0 1 | 3 0 20.8 
##  5 0_4   0 0 | 4 0 24.0 
##  6 0_5   0 0 | 5 0 25   
##  7 1_0   1 1 | 0 1 10.5 
##  8 1_1   1 0 | 1 1 16.4 
##  9 1_2   1 0 | 2 0 21   
## 10 1_3   1 0 | 3 0 24.0 
## # ... with 26 more rows
…
